Introduction to R and RStudio
…
To do so, once again, you can

click on the green arrow at the top of the code chunk in the R Markdown (Rmd) file, or

put your cursor on this line, and hit the Run button on the upper right corner of the pane, or

type the code in the console.

This command instructs R to load some data. The Arbuthnot data records male and female christenings (births) in London from 1629 to 1710. You should see that the workspace area in the upper right hand corner of the RStudio window now lists a data set called arbuthnot that has 82 observations on 3 variables. As you interact with R, you will create a series of objects. Sometimes you load them as we have done here, and sometimes you create them yourself as the byproduct of a computation or some analysis you have performed.

The Arbuthnot data set refers to Dr. John Arbuthnot, an 18th century physician, writer, and mathematician. He was interested in the ratio of newborn boys to newborn girls, so he gathered the baptism records for children born in London for every year from 1629 to 1710. We can take a look at the data by typing its name into the console.

arbuthnot

# A tibble: 82 × 3
    year  boys girls
   <int> <int> <int>
1   1629  5218  4683
2   1630  4858  4457
3   1631  4422  4102
4   1632  4994  4590
5   1633  5158  4839
6   1634  5035  4820
7   1635  5106  4928
8   1636  4917  4605
9   1637  4703  4457
10  1638  5359  4952
# ... with 72 more rows
…
